xof 0302txt 0032
//Maker9.0.0
Header
{
  1;
  0;
  1;
}
Material MatNum169_meh
{
  0.752941,0.752941,0.752941,1.000000;;
  16.000000;;
  0.000000,0.000000,0.000000;;
  0.090196,0.090196,0.090196;;
  TextureFilename
  {
    "Blank.dds";
  }
}
Frame Entity16Frame
{
  FrameTransformMatrix
  {
    -0.999838,0.000000,-0.017999,0.000000,
    0.004658,0.965926,-0.258777,0.000000,
    0.017385,-0.258819,-0.965769,0.000000,
    0.000000,0.000000,0.000000,1.000000;;
  }
  Mesh Entity16Mesh
  {
    369;
    -8.319237;73.865460;9.982019;,-8.007447;73.865460;3.990126;,-8.319237;67.865460;9.982019;,-8.007447;67.865460;3.990127;,-1.328696;67.865460;10.345770;,-1.016906;67.865460;4.353881;,
    -1.328696;73.865460;10.345770;,-1.016906;73.865460;4.353881;,0.268918;73.865460;10.428910;,0.580707;73.865460;4.437013;,0.268918;67.865460;10.428910;,0.580707;67.865460;4.437013;,
    7.259459;67.865460;10.792660;,7.571249;67.865460;4.800767;,7.259459;73.865460;10.792660;,7.571249;73.865460;4.800767;,-4.955093;65.598690;-4.622765;,-5.461269;58.981020;5.104797;,
    -5.461269;65.598690;5.104797;,-4.955093;58.981020;-4.622765;,4.902581;58.981020;5.644082;,-5.461269;65.598690;5.104797;,4.902581;65.598690;5.644082;,5.408756;58.981020;-4.083480;,
    5.408756;65.598690;-4.083481;,6.795949;65.698680;7.745309;,-7.562496;65.698680;6.998165;,-6.796576;65.698680;-7.721112;,-4.955093;65.598690;-4.622765;,5.408756;65.598690;-4.083481;,
    7.561868;65.698680;-6.973969;,6.795948;76.641910;7.745310;,7.561868;76.641910;-6.973968;,-6.796576;76.641910;-7.721112;,-7.562496;76.641910;6.998166;,6.795949;65.698680;7.745309;,
    -7.562496;65.698680;6.998165;,7.561868;65.698680;-6.973969;,-6.796576;65.698680;-7.721112;,11.551390;69.048420;4.437125;,11.963740;76.007340;-3.487401;,11.551390;76.007340;4.437125;,
    11.963740;69.048420;-3.487401;,6.683007;69.048420;4.183798;,7.095361;69.048420;-3.740728;,11.963740;76.007340;-3.487401;,7.095361;76.007340;-3.740728;,11.551390;76.007340;4.437125;,
    6.683007;76.007340;4.183798;,-11.507570;69.048420;-4.708735;,-11.919920;76.007340;3.215791;,-11.507570;76.007340;-4.708735;,-11.919920;69.048420;3.215792;,-6.639185;69.048420;-4.455407;,
    -7.051539;69.048420;3.469119;,-7.051539;76.007340;3.469118;,-11.919920;76.007340;3.215791;,-11.507570;76.007340;-4.708735;,-6.639185;76.007340;-4.455407;,-2.845636;3.225105;-13.180860;,
    -2.660576;10.468270;-7.067493;,-2.491735;11.647720;-12.239560;,-2.953038;2.474838;-9.890853;,1.831168;9.834785;-7.065322;,-0.095786;2.071877;-9.889472;,-0.095786;2.071877;-9.889472;,
    2.000010;11.014240;-12.237390;,1.831168;9.834785;-7.065322;,0.011616;2.822140;-13.179480;,-2.491735;11.647720;-12.239560;,-2.845636;3.225105;-13.180860;,-0.095786;2.071877;-9.889472;,
    -2.845636;3.225105;-13.180860;,0.011616;2.822140;-13.179480;,-2.953038;2.474838;-9.890853;,1.831168;9.834785;-7.065322;,-2.491735;11.647720;-12.239560;,-2.660576;10.468270;-7.067493;,
    2.000010;11.014240;-12.237390;,-3.491605;1.553375;10.901760;,-5.845803;10.690730;11.816930;,-4.212116;9.068600;7.034709;,-4.530813;2.585232;13.943780;,-1.786548;2.950146;14.757490;,
    -0.747341;1.918289;11.715470;,0.102007;9.642262;8.313901;,-1.531680;11.264390;13.096120;,-4.212116;9.068600;7.034709;,-5.845803;10.690730;11.816930;,-4.530813;2.585232;13.943780;,
    -1.531680;11.264390;13.096120;,-5.845803;10.690730;11.816930;,-1.786548;2.950146;14.757490;,-0.747341;1.918289;11.715470;,-4.212116;9.068600;7.034709;,0.102007;9.642262;8.313901;,
    -3.491605;1.553375;10.901760;,-4.320475;9.333557;5.763539;,-8.470311;35.526370;7.991031;,-6.700057;34.915270;2.285340;,-6.090729;9.944660;11.469230;,-6.090729;9.944660;11.469230;,
    -3.326276;36.211880;9.513605;,-8.470311;35.526370;7.991031;,-0.946695;10.630170;12.991800;,-0.946695;10.630170;12.991800;,-1.556021;35.600770;3.807914;,-3.326276;36.211880;9.513605;,
    0.823560;10.019070;7.286113;,0.823560;10.019070;7.286113;,-6.700057;34.915270;2.285340;,-1.556021;35.600770;3.807914;,-4.320475;9.333557;5.763539;,-0.946695;10.630170;12.991800;,
    -4.320475;9.333557;5.763539;,0.823560;10.019070;7.286113;,-6.090729;9.944660;11.469230;,-3.326276;36.211880;9.513605;,-6.700057;34.915270;2.285340;,-8.470311;35.526370;7.991031;,
    -1.556021;35.600770;3.807914;,-2.773743;12.454700;-13.129230;,0.232550;33.774640;2.512669;,0.564468;36.093250;-3.016887;,-3.105661;10.136090;-7.599676;,5.484542;33.031410;2.516280;,
    2.146331;9.392860;-7.596066;,2.146331;9.392860;-7.596066;,5.816460;35.350030;-3.013275;,5.484542;33.031410;2.516280;,2.478248;11.711480;-13.125620;,0.564468;36.093250;-3.016887;,
    -2.773743;12.454700;-13.129230;,2.146331;9.392860;-7.596066;,-2.773743;12.454700;-13.129230;,2.478248;11.711480;-13.125620;,-3.105661;10.136090;-7.599676;,5.484542;33.031410;2.516280;,
    0.564468;36.093250;-3.016887;,0.232550;33.774640;2.512669;,5.816460;35.350030;-3.013275;,-1.275193;29.808860;-3.827471;,1.917014;52.452800;3.827455;,1.917014;52.452800;-3.827478;,
    -1.275193;29.808870;3.827461;,-1.275193;29.808870;3.827461;,9.033281;51.449590;3.827455;,5.841074;28.805660;3.827462;,-1.275193;29.808860;-3.827471;,5.841074;28.805660;-3.827471;,
    5.841074;28.805660;3.827462;,9.033281;51.449590;-3.827478;,5.841074;28.805660;-3.827471;,1.917014;52.452800;-3.827478;,9.033281;51.449590;-3.827478;,9.033281;51.449590;3.827455;,
    1.917014;52.452800;3.827455;,-7.446339;28.936340;3.985760;,-9.836926;52.787160;1.347709;,-7.469802;49.831720;-5.305117;,-9.813463;31.891780;10.638590;,-2.789339;32.826320;12.722660;,
    -0.422215;29.870880;6.069835;,-9.813463;31.891780;10.638590;,-2.812802;53.721710;3.431783;,-9.836926;52.787160;1.347709;,-2.789339;32.826320;12.722660;,-0.445678;50.766270;-3.221042;,
    -2.789339;32.826320;12.722660;,-0.422215;29.870880;6.069835;,-2.812802;53.721710;3.431783;,-7.469802;49.831720;-5.305117;,-9.836926;52.787160;1.347709;,-0.422215;29.870880;6.069835;,
    -7.469802;49.831720;-5.305117;,-0.445678;50.766270;-3.221042;,-7.446339;28.936340;3.985760;,-19.440180;28.359590;6.371803;,-14.780750;32.779040;5.224503;,-19.012620;33.080710;4.953020;,
    -15.208310;28.057920;6.643286;,-15.208310;28.057920;6.643286;,-14.572840;31.288520;0.327354;,-14.780750;32.779040;5.224503;,-15.000400;26.567410;1.746137;,-15.000400;26.567410;1.746137;,
    -18.804710;31.590190;0.055873;,-14.572840;31.288520;0.327354;,-19.232270;26.869080;1.474656;,-19.232270;26.869080;1.474656;,-19.012620;33.080710;4.953020;,-18.804710;31.590190;0.055873;,
    -19.440180;28.359590;6.371803;,-15.000400;26.567410;1.746137;,-19.440180;28.359590;6.371803;,-19.232270;26.869080;1.474656;,-15.208310;28.057920;6.643286;,-14.572840;31.288520;0.327354;,
    -19.012620;33.080710;4.953020;,-14.780750;32.779040;5.224503;,-18.804710;31.590190;0.055873;,-19.409640;33.554170;5.289982;,-12.131930;53.392710;-6.913408;,-17.156890;53.744930;-7.249025;,
    -14.384670;33.201950;5.625599;,-12.016350;50.269630;-11.921540;,-14.384670;33.201950;5.625599;,-14.269090;30.078870;0.617468;,-12.131930;53.392710;-6.913408;,-17.156890;53.744930;-7.249025;,
    -17.041310;50.621860;-12.257160;,-17.041310;50.621860;-12.257160;,-12.016350;50.269630;-11.921540;,-19.294050;30.431090;0.281851;,-19.294050;30.431090;0.281851;,-17.041310;50.621860;-12.257160;,
    -19.409640;33.554170;5.289982;,-14.269090;30.078870;0.617468;,-14.384670;33.201950;5.625599;,-17.609960;48.880420;-8.290829;,-11.109880;72.895290;3.490471;,-16.530760;73.278540;3.185480;,
    -12.189080;48.497180;-7.985837;,-10.585650;75.635320;-2.384007;,-12.189080;48.497180;-7.985837;,-11.664860;51.237210;-13.860310;,-11.109880;72.895290;3.490471;,-16.530760;73.278540;3.185480;,
    -16.006530;76.018570;-2.688997;,-16.006530;76.018570;-2.688997;,-10.585650;75.635320;-2.384007;,-17.085740;51.620450;-14.165300;,-17.085740;51.620450;-14.165300;,-16.006530;76.018570;-2.688997;,
    -17.609960;48.880420;-8.290829;,-11.664860;51.237210;-13.860310;,-12.189080;48.497180;-7.985837;,-6.565534;75.977360;5.519501;,-1.972216;94.502030;-3.022551;,-5.966678;78.050190;-6.149874;,
    -2.571072;92.429210;8.646823;,5.263347;73.087530;5.613223;,9.257808;89.539370;8.740546;,5.862203;75.160350;-6.056151;,9.257808;89.539370;8.740546;,5.263347;73.087530;5.613223;,
    9.856664;91.612200;-2.928829;,-5.966678;78.050190;-6.149874;,-1.972216;94.502030;-3.022551;,-1.972216;94.502030;-3.022551;,9.257808;89.539370;8.740546;,9.856664;91.612200;-2.928829;,
    -2.571072;92.429210;8.646823;,-5.966678;78.050190;-6.149874;,5.263347;73.087530;5.613223;,-6.565534;75.977360;5.519501;,5.862203;75.160350;-6.056151;,3.111469;41.404750;33.443170;,
    2.998175;39.859550;27.106160;,6.060322;41.615730;29.475240;,0.049322;39.648570;31.074090;,0.049322;39.648570;31.074090;,1.179369;44.520050;26.002280;,2.998175;39.859550;27.106160;,
    -1.769482;44.309080;29.970200;,-1.769482;44.309080;29.970200;,4.241516;46.276230;28.371360;,1.179369;44.520050;26.002280;,1.292664;46.065250;32.339290;,1.292664;46.065250;32.339290;,
    6.060322;41.615730;29.475240;,4.241516;46.276230;28.371360;,3.111469;41.404750;33.443170;,-1.769482;44.309080;29.970200;,3.111469;41.404750;33.443170;,1.292664;46.065250;32.339290;,
    0.049322;39.648570;31.074090;,1.179369;44.520050;26.002280;,6.060322;41.615730;29.475240;,2.998175;39.859550;27.106160;,4.241516;46.276230;28.371360;,6.578806;41.437290;29.777210;,
    16.536620;49.217390;8.902157;,19.554590;51.334050;12.351590;,3.560839;39.320640;26.327770;,3.560839;39.320640;26.327770;,13.058050;53.985420;9.019844;,16.536620;49.217390;8.902157;,
    0.082270;44.088670;26.445460;,0.082270;44.088670;26.445460;,16.076020;56.102070;12.469280;,13.058050;53.985420;9.019844;,3.100235;46.205320;29.894890;,3.100235;46.205320;29.894890;,
    19.554590;51.334050;12.351590;,16.076020;56.102070;12.469280;,6.578806;41.437290;29.777210;,0.082270;44.088670;26.445460;,6.578806;41.437290;29.777210;,3.100235;46.205320;29.894890;,
    3.560839;39.320640;26.327770;,13.058050;53.985420;9.019844;,19.554590;51.334050;12.351590;,16.536620;49.217390;8.902157;,16.076020;56.102070;12.469280;,21.244460;51.127460;11.347740;,
    14.099030;72.903170;-3.901068;,17.311610;75.213820;-0.163940;,18.031890;48.816810;7.610615;,18.031890;48.816810;7.610615;,8.935648;73.889880;-0.072506;,14.099030;72.903170;-3.901068;,
    12.868500;49.803520;11.439180;,12.868500;49.803520;11.439180;,12.148220;76.200530;3.664621;,8.935648;73.889880;-0.072506;,16.081080;52.114170;15.176300;,16.081080;52.114170;15.176300;,
    17.311610;75.213820;-0.163940;,12.148220;76.200530;3.664621;,21.244460;51.127460;11.347740;,12.868500;49.803520;11.439180;,21.244460;51.127460;11.347740;,16.081080;52.114170;15.176300;,
    18.031890;48.816810;7.610615;,8.935648;73.889880;-0.072506;,17.311610;75.213820;-0.163940;,14.099030;72.903170;-3.901068;,12.148220;76.200530;3.664621;,-1.328696;73.865460;10.345770;,
    -1.016906;73.865460;4.353881;,-8.319237;73.865460;9.982019;,-8.007447;73.865460;3.990126;,-8.007447;67.865460;3.990127;,-1.016906;67.865460;4.353881;,-1.328696;67.865460;10.345770;,
    -8.319237;67.865460;9.982019;,7.259459;73.865460;10.792660;,7.571249;73.865460;4.800767;,0.268918;73.865460;10.428910;,0.580707;73.865460;4.437013;,0.580707;67.865460;4.437013;,
    7.571249;67.865460;4.800767;,7.259459;67.865460;10.792660;,0.268918;67.865460;10.428910;,6.472457;59.914420;5.653724;,6.472457;57.814410;-5.653745;,6.472457;59.914420;-5.653745;,
    6.472457;57.814410;5.653724;,9.383559;57.714420;-6.348943;,-9.383559;57.714420;-6.348943;,-6.472457;57.814410;-5.653745;,-6.472457;59.914420;-5.653745;,-6.472457;59.914420;5.653724;,
    -6.472457;57.814410;5.653724;,9.383559;57.714420;6.348921;,-9.383559;57.714420;6.348921;,9.383560;51.771350;6.348921;,9.383560;51.771350;-6.348944;,-9.383560;51.771350;-6.348944;,
    -9.383560;51.771350;6.348921;,8.269904;51.759910;5.556977;,8.269903;51.759900;-5.835073;,-8.269903;51.759900;-5.835073;,-8.269904;51.759910;5.556975;,8.269904;50.106090;5.556975;,
    8.269903;50.106090;-5.835074;,-8.269904;50.106090;-5.835073;,-8.269904;50.106090;5.556976;;
    272;
    3;0,1,2;,3;3,2,1;,3;4,5,6;,3;7,6,5;,3;8,9,10;,3;11,10,9;,
    3;12,13,14;,3;15,14,13;,3;16,17,18;,3;17,16,19;,3;19,20,17;,3;20,21,17;,
    3;21,20,22;,3;20,19,23;,3;23,22,20;,3;22,23,24;,3;24,25,22;,3;26,22,25;,
    3;22,26,18;,3;27,18,26;,3;18,27,28;,3;19,29,23;,3;29,19,28;,3;30,28,27;,
    3;28,30,24;,3;25,24,30;,3;30,31,25;,3;31,30,32;,3;33,31,32;,3;31,33,34;,
    3;34,35,31;,3;35,34,36;,3;32,27,33;,3;27,32,37;,3;33,26,34;,3;26,33,38;,
    3;39,40,41;,3;40,39,42;,3;43,42,39;,3;42,43,44;,3;44,45,42;,3;45,44,46;,
    3;46,47,45;,3;47,43,39;,3;43,47,48;,3;47,46,48;,3;49,50,51;,3;50,49,52;,
    3;53,52,49;,3;52,53,54;,3;55,52,54;,3;52,55,56;,3;55,57,56;,3;49,58,53;,
    3;58,49,57;,3;57,55,58;,3;59,60,61;,3;60,59,62;,3;62,63,60;,3;63,62,64;,
    3;65,66,67;,3;66,65,68;,3;68,69,66;,3;69,68,70;,3;71,72,73;,3;72,71,74;,
    3;75,76,77;,3;76,75,78;,3;79,80,81;,3;80,79,82;,3;79,83,82;,3;83,79,84;,
    3;85,83,84;,3;83,85,86;,3;87,86,85;,3;86,87,88;,3;89,90,91;,3;90,89,92;,
    3;93,94,95;,3;94,93,96;,3;97,98,99;,3;98,97,100;,3;101,102,103;,3;102,101,104;,
    3;105,106,107;,3;106,105,108;,3;109,110,111;,3;110,109,112;,3;113,114,115;,3;114,113,116;,
    3;117,118,119;,3;118,117,120;,3;121,122,123;,3;122,121,124;,3;124,125,122;,3;125,124,126;,
    3;127,128,129;,3;128,127,130;,3;130,131,128;,3;131,130,132;,3;133,134,135;,3;134,133,136;,
    3;137,138,139;,3;138,137,140;,3;141,142,143;,3;142,141,144;,3;145,146,142;,3;146,145,147;,
    3;148,147,145;,3;147,148,149;,3;150,151,146;,3;151,150,152;,3;153,152,141;,3;152,153,154;,
    3;153,155,154;,3;155,153,156;,3;157,158,159;,3;158,157,160;,3;157,161,160;,3;161,157,162;,
    3;163,164,165;,3;164,163,166;,3;167,168,169;,3;168,167,170;,3;171,170,167;,3;170,171,172;,
    3;173,174,175;,3;174,173,176;,3;177,178,179;,3;178,177,180;,3;181,182,183;,3;182,181,184;,
    3;185,186,187;,3;186,185,188;,3;189,190,191;,3;190,189,192;,3;193,194,195;,3;194,193,196;,
    3;197,198,199;,3;198,197,200;,3;201,202,203;,3;202,201,204;,3;205,206,207;,3;206,205,208;,
    3;205,209,208;,3;209,205,210;,3;207,211,212;,3;211,207,213;,3;214,203,215;,3;203,214,216;,
    3;217,216,214;,3;216,217,218;,3;219,220,221;,3;220,219,222;,3;223,224,225;,3;224,223,226;,
    3;223,227,226;,3;227,223,228;,3;225,229,230;,3;229,225,231;,3;232,221,233;,3;221,232,234;,
    3;235,234,232;,3;234,235,236;,3;237,238,239;,3;238,237,240;,3;241,240,237;,3;240,241,242;,
    3;243,244,245;,3;244,243,246;,3;247,246,243;,3;246,247,248;,3;249,250,251;,3;250,249,252;,
    3;253,254,255;,3;254,253,256;,3;257,258,259;,3;258,257,260;,3;261,262,263;,3;262,261,264;,
    3;265,266,267;,3;266,265,268;,3;269,270,271;,3;270,269,272;,3;273,274,275;,3;274,273,276;,
    3;277,278,279;,3;278,277,280;,3;281,282,283;,3;282,281,284;,3;285,286,287;,3;286,285,288;,
    3;289,290,291;,3;290,289,292;,3;293,294,295;,3;294,293,296;,3;297,298,299;,3;298,297,300;,
    3;301,302,303;,3;302,301,304;,3;305,306,307;,3;306,305,308;,3;309,310,311;,3;310,309,312;,
    3;313,314,315;,3;314,313,316;,3;317,318,319;,3;318,317,320;,3;321,322,323;,3;322,321,324;,
    3;325,326,327;,3;326,325,328;,3;329,330,331;,3;332,331,330;,3;332,330,333;,3;334,333,330;,
    3;334,335,333;,3;336,333,335;,3;335,329,336;,3;331,336,329;,3;337,338,339;,3;340,339,338;,
    3;340,338,341;,3;342,341,338;,3;342,343,341;,3;344,341,343;,3;343,337,344;,3;339,344,337;,
    3;345,346,347;,3;346,345,348;,3;348,349,346;,3;350,346,349;,3;346,350,351;,3;351,347,346;,
    3;352,345,347;,3;345,352,353;,3;353,348,345;,3;348,353,354;,3;354,355,348;,3;349,348,355;,
    3;347,351,352;,3;354,352,351;,3;352,354,353;,3;351,356,354;,3;355,354,356;,3;356,357,355;,
    3;358,355,357;,3;355,358,349;,3;359,349,358;,3;349,359,350;,3;356,351,350;,3;350,360,356;,
    3;357,356,360;,3;360,361,357;,3;362,357,361;,3;357,362,358;,3;363,358,362;,3;358,363,359;,
    3;360,350,359;,3;359,364,360;,3;361,360,364;,3;364,365,361;,3;366,361,365;,3;361,366,362;,
    3;367,362,366;,3;362,367,363;,3;364,359,363;,3;363,368,364;,3;365,364,368;,3;367,365,368;,
    3;365,367,366;,3;368,363,367;;
    MeshNormals
    {
      369;
      -0.998649;0.000000;-0.051965;,-0.998649;0.000000;-0.051965;,-0.998649;0.000000;-0.051965;,-0.998649;0.000000;-0.051965;,0.998649;0.000000;0.051965;,0.998649;0.000000;0.051965;,
      0.998649;0.000000;0.051965;,0.998649;0.000000;0.051965;,-0.998649;0.000000;-0.051965;,-0.998649;0.000000;-0.051965;,-0.998649;0.000000;-0.051965;,-0.998649;0.000000;-0.051965;,
      0.998649;0.000000;0.051965;,0.998649;0.000000;0.051965;,0.998649;0.000000;0.051965;,0.998649;0.000000;0.051965;,-0.998649;0.000000;-0.051965;,-0.606572;-0.577350;0.546568;,
      -0.338424;-0.940975;0.005946;,-0.546568;-0.577350;-0.606572;,0.546568;-0.577350;0.606572;,-0.051965;0.000000;0.998649;,0.302931;-0.891746;0.336188;,0.606572;-0.577350;-0.546568;,
      0.339626;-0.940555;0.003276;,0.713953;-0.698059;0.054625;,-0.715767;-0.698059;-0.019770;,0.024042;-0.699610;-0.714120;,-0.008410;-0.943847;-0.330276;,0.051965;0.000000;-0.998649;,
      0.713451;-0.700344;0.022495;,0.546568;0.577350;0.606572;,0.606572;0.577350;-0.546568;,-0.546568;0.577350;-0.606572;,-0.606572;0.577350;0.546568;,-0.051965;0.000000;0.998649;,
      -0.051965;0.000000;0.998649;,0.051965;0.000000;-0.998649;,-0.998649;0.000000;-0.051965;,0.546568;-0.577350;0.606572;,0.998649;0.000000;0.051965;,0.998649;0.000000;0.051965;,
      0.606572;-0.577350;-0.546568;,-0.036745;-0.707107;0.706151;,0.036745;-0.707107;-0.706151;,0.036745;0.707107;-0.706151;,0.036745;0.707107;-0.706151;,-0.036745;0.707107;0.706151;,
      -0.036745;0.707107;0.706151;,-0.546568;-0.577350;-0.606572;,-0.998649;0.000000;-0.051965;,-0.998649;0.000000;-0.051965;,-0.606572;-0.577350;0.546568;,0.036745;-0.707107;-0.706151;,
      -0.036745;-0.707107;0.706152;,-0.036745;0.707107;0.706151;,-0.036745;0.707107;0.706151;,0.036745;0.707107;-0.706152;,0.036745;0.707107;-0.706152;,-0.998758;0.044476;-0.022462;,
      -0.731655;-0.203073;0.650725;,-0.998758;0.044476;-0.022462;,-0.738777;-0.200264;0.643509;,-0.047157;-0.331141;0.942402;,-0.047157;-0.331141;0.942402;,0.972123;-0.233481;-0.021509;,
      0.691033;-0.085182;-0.717786;,0.972123;-0.233481;-0.021509;,0.698189;-0.087755;-0.710514;,0.016049;0.110388;-0.993759;,0.016049;0.110388;-0.993759;,-0.135979;-0.964943;-0.224488;,
      -0.135979;-0.964943;-0.224488;,-0.135980;-0.964943;-0.224487;,-0.135979;-0.964943;-0.224488;,0.135979;0.964943;0.224488;,0.135979;0.964943;0.224488;,0.135979;0.964943;0.224488;,
      0.135979;0.964943;0.224488;,-0.640794;-0.766610;0.041128;,-0.943754;-0.218279;-0.248362;,-0.943754;-0.218279;-0.248362;,-0.640795;-0.766610;0.041128;,0.680727;-0.590883;0.432976;,
      0.680727;-0.590884;0.432976;,0.658029;0.752378;-0.030413;,0.658029;0.752378;-0.030413;,-0.027761;0.943716;-0.329591;,-0.027761;0.943716;-0.329591;,-0.302610;0.195673;0.932813;,
      -0.302610;0.195673;0.932813;,-0.302610;0.195673;0.932813;,-0.302610;0.195673;0.932813;,0.308961;-0.411570;-0.857411;,0.308961;-0.411570;-0.857411;,0.308961;-0.411570;-0.857411;,
      0.308961;-0.411570;-0.857411;,-0.951145;-0.126752;-0.281528;,-0.951145;-0.126752;-0.281528;,-0.951145;-0.126752;-0.281528;,-0.951145;-0.126752;-0.281528;,-0.294788;0.101763;0.950129;,
      -0.294788;0.101763;0.950129;,-0.294788;0.101763;0.950129;,-0.294788;0.101763;0.950129;,0.951145;0.126752;0.281528;,0.951145;0.126752;0.281528;,0.951145;0.126752;0.281528;,
      0.951145;0.126752;0.281528;,0.294788;-0.101763;-0.950129;,0.294788;-0.101763;-0.950129;,0.294788;-0.101763;-0.950129;,0.294788;-0.101763;-0.950129;,0.091783;-0.986701;0.134156;,
      0.091783;-0.986701;0.134156;,0.091783;-0.986701;0.134156;,0.091783;-0.986701;0.134156;,-0.091781;0.986701;-0.134156;,-0.091781;0.986701;-0.134156;,-0.091781;0.986701;-0.134156;,
      -0.091781;0.986701;-0.134156;,-0.990135;0.140117;-0.000681;,-0.739214;-0.173938;0.650621;,-0.990135;0.140117;-0.000681;,-0.739214;-0.173939;0.650621;,-0.055272;-0.386103;0.920798;,
      -0.055272;-0.386103;0.920798;,0.990135;-0.140117;0.000681;,0.739214;0.173939;-0.650621;,0.990135;-0.140117;0.000681;,0.739214;0.173939;-0.650621;,0.055272;0.386103;-0.920798;,
      0.055272;0.386103;-0.920798;,-0.128757;-0.911752;-0.390038;,-0.128757;-0.911752;-0.390038;,-0.128757;-0.911752;-0.390038;,-0.128757;-0.911752;-0.390038;,0.128757;0.911752;0.390039;,
      0.128757;0.911752;0.390039;,0.128757;0.911752;0.390038;,0.128757;0.911752;0.390039;,-0.700183;0.098708;-0.707107;,-0.700183;0.098708;0.707107;,-0.990209;0.139594;0.000000;,
      -0.990209;0.139594;0.000000;,-0.098708;-0.700183;0.707107;,0.700183;-0.098707;0.707107;,-0.098708;-0.700183;0.707107;,-0.139594;-0.990209;0.000000;,-0.139594;-0.990209;0.000000;,
      0.990209;-0.139594;0.000000;,0.990209;-0.139594;0.000000;,0.700183;-0.098708;-0.707107;,0.098708;0.700183;-0.707107;,0.098708;0.700183;-0.707107;,0.139594;0.990209;0.000000;,
      0.139594;0.990209;0.000000;,-0.671724;-0.735584;0.087770;,-0.950987;-0.126527;-0.282160;,-0.950987;-0.126527;-0.282160;,-0.671724;-0.735584;0.087770;,0.001026;-0.913746;0.406286;,
      0.001026;-0.913746;0.406286;,-0.309229;0.386083;0.869090;,-0.309229;0.386083;0.869090;,-0.309229;0.386083;0.869090;,-0.309229;0.386083;0.869090;,0.671724;0.735584;-0.087770;,
      0.950987;0.126527;0.282160;,0.950987;0.126527;0.282160;,0.671724;0.735584;-0.087770;,-0.001026;0.913745;-0.406286;,-0.001026;0.913745;-0.406286;,0.309229;-0.386083;-0.869090;,
      0.309229;-0.386083;-0.869090;,0.309229;-0.386083;-0.869090;,0.309229;-0.386083;-0.869090;,-0.040582;0.290936;0.955882;,-0.040582;0.290936;0.955882;,-0.040582;0.290936;0.955882;,
      -0.040582;0.290936;0.955882;,0.995433;-0.070959;0.063858;,0.995433;-0.070959;0.063858;,0.995433;-0.070959;0.063858;,0.995433;-0.070959;0.063858;,0.040582;-0.290936;-0.955882;,
      0.040582;-0.290936;-0.955882;,0.040582;-0.290936;-0.955882;,0.040582;-0.290936;-0.955882;,-0.995433;0.070960;-0.063859;,-0.995433;0.070960;-0.063859;,-0.995433;0.070960;-0.063859;,
      -0.995433;0.070960;-0.063859;,-0.086408;-0.954108;0.286727;,-0.086408;-0.954108;0.286727;,-0.086408;-0.954108;0.286727;,-0.086408;-0.954108;0.286727;,0.086408;0.954108;-0.286727;,
      0.086408;0.954108;-0.286727;,0.086408;0.954108;-0.286727;,0.086408;0.954108;-0.286727;,-0.019579;0.529044;0.848368;,-0.019579;0.529044;0.848368;,-0.717661;0.423424;0.552879;,
      -0.019579;0.529044;0.848368;,0.770538;0.548682;-0.324375;,0.995346;-0.069768;0.066479;,0.717660;-0.423425;-0.552879;,0.770538;0.548682;-0.324376;,0.094360;0.845722;-0.525216;,
      0.094360;0.845722;-0.525215;,0.019579;-0.529044;-0.848368;,0.019579;-0.529044;-0.848368;,0.019580;-0.529044;-0.848368;,-0.770538;-0.548682;0.324376;,-0.995346;0.069768;-0.066479;,
      -0.770538;-0.548682;0.324376;,-0.094360;-0.845721;0.525216;,-0.094360;-0.845721;0.525216;,-0.080610;-0.421333;0.903316;,-0.080610;-0.421333;0.903316;,-0.761238;-0.248140;0.599119;,
      -0.080610;-0.421333;0.903316;,0.732518;0.589556;0.340354;,0.995943;-0.070411;0.056034;,0.761238;0.248140;-0.599119;,0.732519;0.589556;0.340354;,0.039995;0.904169;0.425300;,
      0.039995;0.904168;0.425300;,0.080610;0.421333;-0.903316;,0.080610;0.421333;-0.903316;,0.080609;0.421333;-0.903316;,-0.732518;-0.589556;-0.340354;,-0.995943;0.070411;-0.056034;,
      -0.732518;-0.589556;-0.340354;,-0.039994;-0.904169;-0.425300;,-0.039994;-0.904169;-0.425300;,-0.722568;0.044299;0.689879;,-0.971402;0.237317;-0.007697;,-0.971402;0.237317;-0.007696;,
      -0.722568;0.044299;0.689879;,-0.050463;-0.174669;0.983333;,-0.050463;-0.174669;0.983333;,0.722568;-0.044299;-0.689879;,0.971402;-0.237317;0.007696;,0.971402;-0.237317;0.007697;,
      0.722568;-0.044299;-0.689879;,0.050463;0.174669;-0.983333;,0.050463;0.174669;-0.983333;,0.232017;0.955600;0.181650;,0.232017;0.955600;0.181650;,0.232017;0.955600;0.181650;,
      0.232017;0.955600;0.181649;,-0.232017;-0.955600;-0.181650;,-0.232017;-0.955600;-0.181650;,-0.232017;-0.955600;-0.181650;,-0.232017;-0.955600;-0.181649;,0.355016;-0.909690;0.215470;,
      0.355016;-0.909690;0.215470;,0.355016;-0.909690;0.215470;,0.355016;-0.909690;0.215470;,-0.720288;-0.413092;-0.557262;,-0.720288;-0.413092;-0.557262;,-0.720288;-0.413092;-0.557262;,
      -0.720288;-0.413092;-0.557262;,-0.355016;0.909690;-0.215470;,-0.355016;0.909690;-0.215470;,-0.355016;0.909690;-0.215469;,-0.355016;0.909690;-0.215470;,0.720288;0.413092;0.557262;,
      0.720288;0.413092;0.557262;,0.720288;0.413092;0.557262;,0.720288;0.413092;0.557262;,-0.595945;-0.042637;0.801893;,-0.595945;-0.042637;0.801893;,-0.595945;-0.042638;0.801892;,
      -0.595945;-0.042637;0.801893;,0.595945;0.042637;-0.801893;,0.595945;0.042637;-0.801893;,0.595945;0.042637;-0.801893;,0.595945;0.042638;-0.801893;,0.589264;-0.807695;-0.019936;,
      0.589264;-0.807695;-0.019936;,0.589264;-0.807695;-0.019936;,0.589264;-0.807695;-0.019936;,-0.597800;-0.419267;-0.683264;,-0.597800;-0.419267;-0.683264;,-0.597800;-0.419267;-0.683264;,
      -0.597800;-0.419267;-0.683264;,-0.589264;0.807695;0.019936;,-0.589264;0.807695;0.019936;,-0.589264;0.807695;0.019936;,-0.589264;0.807695;0.019936;,0.597800;0.419267;0.683265;,
      0.597800;0.419267;0.683265;,0.597800;0.419267;0.683264;,0.597800;0.419267;0.683265;,-0.543511;-0.414541;0.729899;,-0.543511;-0.414541;0.729899;,-0.543511;-0.414541;0.729899;,
      -0.543511;-0.414540;0.729899;,0.543511;0.414541;-0.729899;,0.543511;0.414541;-0.729899;,0.543511;0.414540;-0.729899;,0.543511;0.414541;-0.729898;,0.793972;-0.151726;-0.588716;,
      0.793972;-0.151727;-0.588716;,0.793972;-0.151727;-0.588716;,0.793972;-0.151726;-0.588716;,-0.590226;-0.424521;-0.686597;,-0.590225;-0.424521;-0.686598;,-0.590225;-0.424521;-0.686598;,
      -0.590226;-0.424521;-0.686597;,-0.793972;0.151727;0.588717;,-0.793972;0.151727;0.588717;,-0.793972;0.151727;0.588716;,-0.793972;0.151727;0.588717;,0.590225;0.424521;0.686598;,
      0.590225;0.424521;0.686598;,0.590225;0.424521;0.686598;,0.590225;0.424521;0.686598;,0.145748;-0.892615;0.426610;,0.145748;-0.892615;0.426610;,0.145748;-0.892615;0.426610;,
      0.145748;-0.892615;0.426611;,-0.145748;0.892615;-0.426610;,-0.145748;0.892615;-0.426610;,-0.145748;0.892615;-0.426610;,-0.145748;0.892615;-0.426610;,-0.036745;0.707107;0.706152;,
      0.036745;0.707107;-0.706152;,-0.036745;0.707107;0.706151;,0.036745;0.707107;-0.706152;,0.036745;-0.707107;-0.706151;,0.036745;-0.707107;-0.706151;,-0.036745;-0.707107;0.706151;,
      -0.036745;-0.707107;0.706152;,-0.036745;0.707107;0.706151;,0.036745;0.707107;-0.706151;,-0.036745;0.707107;0.706151;,0.036745;0.707107;-0.706151;,0.036745;-0.707107;-0.706151;,
      0.036745;-0.707107;-0.706151;,-0.036745;-0.707107;0.706151;,-0.036745;-0.707107;0.706152;,0.577350;0.577350;0.577350;,0.305849;0.876519;-0.371713;,0.577350;0.577350;-0.577350;,
      0.305849;0.876519;0.371713;,0.584391;0.567537;-0.579990;,-0.584391;0.567538;-0.579990;,-0.305849;0.876519;-0.371713;,-0.577350;0.577350;-0.577350;,-0.577350;0.577350;0.577350;,
      -0.305849;0.876519;0.371713;,0.584391;0.567538;0.579990;,-0.584391;0.567537;0.579990;,0.578652;-0.575053;0.578339;,0.579034;-0.574732;-0.578276;,-0.579034;-0.574732;-0.578276;,
      -0.578653;-0.575052;0.578339;,0.304805;-0.901416;0.307479;,0.304068;-0.900226;-0.311665;,-0.304068;-0.900226;-0.311665;,-0.304805;-0.901416;0.307478;,0.577350;-0.577351;0.577350;,
      0.577350;-0.577350;-0.577351;,-0.577350;-0.577350;-0.577350;,-0.577350;-0.577350;0.577351;;
      272;
      3;0,0,0;,3;0,0,0;,3;0,0,0;,3;0,0,0;,3;0,0,0;,3;0,0,0;,3;0,0,0;,3;0,0,0;,3;0,0,0;,3;0,0,0;,3;0,0,0;,3;0,0,0;,3;0,0,0;,3;0,0,0;,3;0,0,0;,3;0,0,0;,
      3;0,0,0;,3;0,0,0;,3;0,0,0;,3;0,0,0;,3;0,0,0;,3;0,0,0;,3;0,0,0;,3;0,0,0;,3;0,0,0;,3;0,0,0;,3;0,0,0;,3;0,0,0;,3;0,0,0;,3;0,0,0;,3;0,0,0;,3;0,0,0;,
      3;0,0,0;,3;0,0,0;,3;0,0,0;,3;0,0,0;,3;0,0,0;,3;0,0,0;,3;0,0,0;,3;0,0,0;,3;0,0,0;,3;0,0,0;,3;0,0,0;,3;0,0,0;,3;0,0,0;,3;0,0,0;,3;0,0,0;,3;0,0,0;,
      3;0,0,0;,3;0,0,0;,3;0,0,0;,3;0,0,0;,3;0,0,0;,3;0,0,0;,3;0,0,0;,3;0,0,0;,3;0,0,0;,3;0,0,0;,3;0,0,0;,3;0,0,0;,3;0,0,0;,3;0,0,0;,3;0,0,0;,3;0,0,0;,
      3;0,0,0;,3;0,0,0;,3;0,0,0;,3;0,0,0;,3;0,0,0;,3;0,0,0;,3;0,0,0;,3;0,0,0;,3;0,0,0;,3;0,0,0;,3;0,0,0;,3;0,0,0;,3;0,0,0;,3;0,0,0;,3;0,0,0;,3;0,0,0;,
      3;0,0,0;,3;0,0,0;,3;0,0,0;,3;0,0,0;,3;0,0,0;,3;0,0,0;,3;0,0,0;,3;0,0,0;,3;0,0,0;,3;0,0,0;,3;0,0,0;,3;0,0,0;,3;0,0,0;,3;0,0,0;,3;0,0,0;,3;0,0,0;,
      3;0,0,0;,3;0,0,0;,3;0,0,0;,3;0,0,0;,3;0,0,0;,3;0,0,0;,3;0,0,0;,3;0,0,0;,3;0,0,0;,3;0,0,0;,3;0,0,0;,3;0,0,0;,3;0,0,0;,3;0,0,0;,3;0,0,0;,3;0,0,0;,
      3;0,0,0;,3;0,0,0;,3;0,0,0;,3;0,0,0;,3;0,0,0;,3;0,0,0;,3;0,0,0;,3;0,0,0;,3;0,0,0;,3;0,0,0;,3;0,0,0;,3;0,0,0;,3;0,0,0;,3;0,0,0;,3;0,0,0;,3;0,0,0;,
      3;0,0,0;,3;0,0,0;,3;0,0,0;,3;0,0,0;,3;0,0,0;,3;0,0,0;,3;0,0,0;,3;0,0,0;,3;0,0,0;,3;0,0,0;,3;0,0,0;,3;0,0,0;,3;0,0,0;,3;0,0,0;,3;0,0,0;,3;0,0,0;,
      3;0,0,0;,3;0,0,0;,3;0,0,0;,3;0,0,0;,3;0,0,0;,3;0,0,0;,3;0,0,0;,3;0,0,0;,3;0,0,0;,3;0,0,0;,3;0,0,0;,3;0,0,0;,3;0,0,0;,3;0,0,0;,3;0,0,0;,3;0,0,0;,
      3;0,0,0;,3;0,0,0;,3;0,0,0;,3;0,0,0;,3;0,0,0;,3;0,0,0;,3;0,0,0;,3;0,0,0;,3;0,0,0;,3;0,0,0;,3;0,0,0;,3;0,0,0;,3;0,0,0;,3;0,0,0;,3;0,0,0;,3;0,0,0;,
      3;0,0,0;,3;0,0,0;,3;0,0,0;,3;0,0,0;,3;0,0,0;,3;0,0,0;,3;0,0,0;,3;0,0,0;,3;0,0,0;,3;0,0,0;,3;0,0,0;,3;0,0,0;,3;0,0,0;,3;0,0,0;,3;0,0,0;,3;0,0,0;,
      3;0,0,0;,3;0,0,0;,3;0,0,0;,3;0,0,0;,3;0,0,0;,3;0,0,0;,3;0,0,0;,3;0,0,0;,3;0,0,0;,3;0,0,0;,3;0,0,0;,3;0,0,0;,3;0,0,0;,3;0,0,0;,3;0,0,0;,3;0,0,0;,
      3;0,0,0;,3;0,0,0;,3;0,0,0;,3;0,0,0;,3;0,0,0;,3;0,0,0;,3;0,0,0;,3;0,0,0;,3;0,0,0;,3;0,0,0;,3;0,0,0;,3;0,0,0;,3;0,0,0;,3;0,0,0;,3;0,0,0;,3;0,0,0;,
      3;0,0,0;,3;0,0,0;,3;0,0,0;,3;0,0,0;,3;0,0,0;,3;0,0,0;,3;0,0,0;,3;0,0,0;,3;0,0,0;,3;0,0,0;,3;0,0,0;,3;0,0,0;,3;0,0,0;,3;0,0,0;,3;0,0,0;,3;0,0,0;,
      3;0,0,0;,3;0,0,0;,3;0,0,0;,3;0,0,0;,3;0,0,0;,3;0,0,0;,3;0,0,0;,3;0,0,0;,3;0,0,0;,3;0,0,0;,3;0,0,0;,3;0,0,0;,3;0,0,0;,3;0,0,0;,3;0,0,0;,3;0,0,0;,
      3;0,0,0;,3;0,0,0;,3;0,0,0;,3;0,0,0;,3;0,0,0;,3;0,0,0;,3;0,0,0;,3;0,0,0;,3;0,0,0;,3;0,0,0;,3;0,0,0;,3;0,0,0;,3;0,0,0;,3;0,0,0;,3;0,0,0;,3;0,0,0;;
    }
    MeshMaterialList
    {
      1;
      272;
      0,0,0,0,0,0,0,0,0,0,0,0,0,0,0,0,0,0,0,0,0,0,0,0,0,0,0,0,0,0,0,0,0,0,0,0,0,0,0,0,0,0,0,0,0,0,0,0,0,0,0,0,0,0,0,0,0,0,0,0,0,0,0,0,0,0,0,0,0,0,0,0,0,0,0,0,0,0,0,0,0,0,0,0,0,0,0,0,0,0,0,0,0,0,0,0,0,0,0,0,0,0,0,0,0,0,0,0,0,0,0,0,0,0,0,0,0,0,0,0,0,0,0,0,0,0,0,0,
      0,0,0,0,0,0,0,0,0,0,0,0,0,0,0,0,0,0,0,0,0,0,0,0,0,0,0,0,0,0,0,0,0,0,0,0,0,0,0,0,0,0,0,0,0,0,0,0,0,0,0,0,0,0,0,0,0,0,0,0,0,0,0,0,0,0,0,0,0,0,0,0,0,0,0,0,0,0,0,0,0,0,0,0,0,0,0,0,0,0,0,0,0,0,0,0,0,0,0,0,0,0,0,0,0,0,0,0,0,0,0,0,0,0,0,0,0,0,0,0,0,0,0,0,0,0,0,0,
      0,0,0,0,0,0,0,0,0,0,0,0,0,0,0,0;
      {MatNum169_meh}
    }
    MeshTextureCoords
    {
      369;
      -0.418284;1.283034;,-0.418284;1.283034;,-0.418284;1.466335;,-0.418284;1.466335;,-0.516218;1.466335;,-0.516218;1.466335;,-0.516218;1.283034;,-0.516218;1.283034;,-0.583165;1.284163;,-0.583165;1.284163;,-0.583165;1.473661;,-0.583165;1.473661;,-0.680866;1.473661;,-0.680866;1.473661;,-0.680866;1.284163;,
      -0.680866;1.284163;,-0.630596;1.576671;,-0.630596;1.796013;,-0.630596;1.576671;,-0.630596;1.796013;,-0.472865;1.796013;,-0.630596;1.576671;,-0.472865;1.576671;,-0.472865;1.796013;,-0.472865;1.576671;,-0.442467;1.573357;,-0.660993;1.573357;,-0.660993;1.573357;,-0.630596;1.576671;,-0.472865;1.576671;,
      -0.442467;1.573357;,-0.442467;1.210646;,-0.442467;1.210647;,-0.660993;1.210647;,-0.660993;1.210646;,-0.442467;1.573357;,-0.660993;1.573357;,-0.442467;1.573357;,-0.660993;1.573357;,-0.403594;1.440149;,-0.403594;1.211211;,-0.403594;1.211211;,-0.403594;1.440149;,-0.442963;1.440149;,-0.442963;1.440149;,
      -0.403594;1.211211;,-0.442963;1.211211;,-0.403594;1.211211;,-0.442963;1.211211;,-0.700065;1.437026;,-0.700065;1.210669;,-0.700065;1.210669;,-0.700065;1.437026;,-0.660382;1.437026;,-0.660382;1.437026;,-0.660382;1.210669;,-0.700065;1.210669;,-0.700065;1.210669;,-0.660382;1.210669;,-0.208511;-0.839308;,
      -0.589653;-0.804693;,-0.589653;-0.804693;,-0.208511;-0.839308;,-0.589654;-0.994941;,-0.208512;-0.960327;,-0.208512;-0.960327;,-0.589654;-0.994941;,-0.589654;-0.994941;,-0.208512;-0.960327;,-0.589653;-0.804693;,-0.208511;-0.839308;,-0.208512;-0.960327;,-0.208511;-0.839308;,-0.208512;-0.960327;,-0.208511;-0.839308;,
      -0.589654;-0.994941;,-0.589653;-0.804693;,-0.589653;-0.804693;,-0.589654;-0.994941;,-0.208474;-0.960384;,-0.588854;-0.994872;,-0.588854;-0.994872;,-0.208474;-0.960384;,-0.208475;-0.839809;,-0.208475;-0.839809;,-0.588855;-0.805322;,-0.588855;-0.805322;,-0.588854;-0.994872;,-0.588854;-0.994872;,-0.208474;-0.960384;,
      -0.588855;-0.805322;,-0.588854;-0.994872;,-0.208475;-0.839809;,-0.208475;-0.839809;,-0.588854;-0.994872;,-0.588855;-0.805322;,-0.208474;-0.960384;,-0.002970;-0.004620;,-0.002970;-0.493002;,-0.002970;-0.493002;,-0.002970;-0.004620;,-0.002970;-0.004620;,-0.196329;-0.493002;,-0.002970;-0.493002;,-0.196329;-0.004620;,
      -0.196329;-0.004620;,-0.196329;-0.493002;,-0.196329;-0.493002;,-0.196329;-0.004620;,-0.196329;-0.004620;,-0.002970;-0.493002;,-0.196329;-0.493002;,-0.002970;-0.004620;,-0.196329;-0.004620;,-0.002970;-0.004620;,-0.196329;-0.004620;,-0.002970;-0.004620;,-0.196329;-0.493002;,-0.002970;-0.493002;,-0.002970;-0.493002;,
      -0.196329;-0.493002;,-0.196670;-0.004709;,-0.196670;-0.493041;,-0.196670;-0.493041;,-0.196670;-0.004709;,-0.003036;-0.493041;,-0.003036;-0.004709;,-0.003036;-0.004709;,-0.003036;-0.493041;,-0.003036;-0.493041;,-0.003036;-0.004709;,-0.196670;-0.493041;,-0.196670;-0.004709;,-0.003036;-0.004709;,-0.196670;-0.004709;,
      -0.003036;-0.004709;,-0.196670;-0.004709;,-0.003036;-0.493041;,-0.196670;-0.493041;,-0.196670;-0.493041;,-0.003036;-0.493041;,-0.193459;-0.505029;,-0.193459;-0.995522;,-0.193459;-0.995522;,-0.193459;-0.505029;,-0.193459;-0.505029;,-0.004998;-0.995522;,-0.004998;-0.505029;,-0.193459;-0.505029;,-0.004998;-0.505029;,
      -0.004998;-0.505029;,-0.004998;-0.995522;,-0.004998;-0.505029;,-0.193459;-0.995522;,-0.004998;-0.995522;,-0.004998;-0.995522;,-0.193459;-0.995522;,-0.005090;-0.504733;,-0.005090;-0.995570;,-0.005090;-0.995570;,-0.005090;-0.504733;,-0.193292;-0.504733;,-0.193292;-0.504733;,-0.005090;-0.504733;,-0.193292;-0.995570;,
      -0.005090;-0.995570;,-0.193292;-0.504733;,-0.193292;-0.995570;,-0.193292;-0.504733;,-0.193292;-0.504733;,-0.193292;-0.995570;,-0.005090;-0.995570;,-0.005090;-0.995570;,-0.193292;-0.504733;,-0.005090;-0.995570;,-0.193292;-0.995570;,-0.005090;-0.504733;,-0.812421;-0.976973;,-0.976972;-0.816986;,-0.812421;-0.816986;,
      -0.976972;-0.976973;,-0.812421;-0.976973;,-0.976972;-0.816986;,-0.812421;-0.816986;,-0.976972;-0.976973;,-0.812421;-0.976973;,-0.976972;-0.816986;,-0.812421;-0.816986;,-0.976972;-0.976973;,-0.812421;-0.976973;,-0.976972;-0.816986;,-0.812421;-0.816986;,-0.976972;-0.976973;,-0.976972;-0.976973;,-0.812421;-0.816986;,
      -0.976972;-0.816986;,-0.812421;-0.976973;,-0.812421;-0.976973;,-0.976972;-0.816986;,-0.976972;-0.976973;,-0.812421;-0.816986;,-0.390787;-0.790417;,-0.206023;-0.008008;,-0.390790;-0.008008;,-0.206019;-0.790417;,-0.206023;-0.008008;,-0.206019;-0.790417;,-0.206019;-0.790417;,-0.206023;-0.008008;,-0.390790;-0.008008;,
      -0.390790;-0.008008;,-0.390790;-0.008008;,-0.206023;-0.008008;,-0.390787;-0.790417;,-0.390787;-0.790417;,-0.390790;-0.008008;,-0.390787;-0.790417;,-0.206019;-0.790417;,-0.206019;-0.790417;,-0.400719;0.815041;,-0.994418;0.993769;,-0.994418;0.815041;,-0.400719;0.993769;,-0.994418;0.993769;,-0.400719;0.993769;,
      -0.400719;0.993769;,-0.994418;0.993769;,-0.994418;0.815041;,-0.994418;0.815041;,-0.994418;0.815041;,-0.994418;0.993769;,-0.400719;0.815041;,-0.400719;0.815041;,-0.994418;0.815041;,-0.400719;0.815041;,-0.400719;0.993769;,-0.400719;0.993769;,-0.994454;-0.506221;,-0.994454;-0.788263;,-0.994454;-0.506221;,
      -0.994454;-0.788263;,-0.711967;-0.506221;,-0.711967;-0.788263;,-0.711967;-0.506221;,-0.711967;-0.788263;,-0.711967;-0.506221;,-0.711967;-0.788263;,-0.994454;-0.506221;,-0.994454;-0.788263;,-0.994454;-0.788263;,-0.711967;-0.788263;,-0.711967;-0.788263;,-0.994454;-0.788263;,-0.994454;-0.506221;,-0.711967;-0.506221;,
      -0.994454;-0.506221;,-0.711967;-0.506221;,-0.812421;-0.976972;,-0.972407;-0.826117;,-0.812421;-0.826117;,-0.972407;-0.976972;,-0.812421;-0.976972;,-0.972407;-0.826117;,-0.812421;-0.826117;,-0.972407;-0.976972;,-0.812421;-0.976972;,-0.972407;-0.826117;,-0.812421;-0.826117;,-0.972407;-0.976972;,-0.812421;-0.976972;,
      -0.972407;-0.826117;,-0.812421;-0.826117;,-0.972407;-0.976972;,-0.972407;-0.976972;,-0.812421;-0.826117;,-0.972407;-0.826117;,-0.812421;-0.976972;,-0.812421;-0.976972;,-0.972407;-0.826117;,-0.972407;-0.976972;,-0.812421;-0.826117;,-0.392032;-0.791481;,-0.205664;-0.008047;,-0.392031;-0.008046;,-0.205666;-0.791482;,
      -0.205666;-0.791482;,-0.205664;-0.008047;,-0.205664;-0.008047;,-0.205666;-0.791482;,-0.205666;-0.791482;,-0.392031;-0.008046;,-0.205664;-0.008047;,-0.392032;-0.791481;,-0.392032;-0.791481;,-0.392031;-0.008046;,-0.392031;-0.008046;,-0.392032;-0.791481;,-0.205666;-0.791482;,-0.392032;-0.791481;,-0.392032;-0.791481;,
      -0.205666;-0.791482;,-0.205664;-0.008047;,-0.392031;-0.008046;,-0.205664;-0.008047;,-0.392031;-0.008046;,-0.403118;0.813266;,-0.993038;0.991915;,-0.993038;0.813266;,-0.403118;0.991915;,-0.403118;0.991915;,-0.993038;0.991915;,-0.993038;0.991915;,-0.403118;0.991915;,-0.403118;0.991915;,-0.993038;0.813266;,
      -0.993038;0.991915;,-0.403118;0.813266;,-0.403118;0.813266;,-0.993038;0.813266;,-0.993038;0.813266;,-0.403118;0.813266;,-0.403118;0.991915;,-0.403118;0.813266;,-0.403118;0.813266;,-0.403118;0.991915;,-0.993038;0.991915;,-0.993038;0.813266;,-0.993038;0.991915;,-0.993038;0.813266;,-0.516218;1.283034;,
      -0.516218;1.283034;,-0.418284;1.283034;,-0.418284;1.283034;,-0.418284;1.466335;,-0.516218;1.466335;,-0.516218;1.466335;,-0.418284;1.466335;,-0.680866;1.284163;,-0.680866;1.284163;,-0.583165;1.284163;,-0.583165;1.284163;,-0.583165;1.473661;,-0.680866;1.473661;,-0.680866;1.473661;,-0.583165;1.473661;,
      -0.753044;-0.497617;,-0.753044;-0.405106;,-0.753044;-0.497617;,-0.753044;-0.405106;,-0.709417;-0.402623;,-0.990668;-0.402623;,-0.947041;-0.405106;,-0.947041;-0.497617;,-0.947041;-0.497617;,-0.947041;-0.405106;,-0.709417;-0.402623;,-0.990668;-0.402623;,-0.709417;-0.255052;,-0.709417;-0.255052;,-0.990668;-0.255052;,
      -0.990668;-0.255052;,-0.726107;-0.254768;,-0.726107;-0.254768;,-0.973979;-0.254768;,-0.973979;-0.254768;,-0.726107;-0.205516;,-0.726107;-0.205516;,-0.973979;-0.205516;,-0.973979;-0.205516;;
    }
  }
}
